{
  "txtFirstname": "Your First name",
  "txtEmail": "Your email",
  "txtParents": "Your parent's email",
  "txtCheckBox": "I have read the <a href='javascript:void(0)' data-track='form_rules' data-link='official-rules.html' id='off_rules'>official Rules</a> and agree to the <a href='javascript:void(0)' data-track='form_terms' data-link='http://www.nick.com/legal/nick-terms-of-use/' id='terms_cond'>terms and conditions</a>",
  "txtPurchase": "No purchase necessary. Many will enter, one will win. Minors need parental permission to enter.",
  "txtBtnEnter": "Enter Here",
  "txtLegal": "<span class='txt-hev'>NO PURCHASE NECESSARY. MANY WILL ENTER, ONE WILL WIN. Any entrant who is considered under the age of majority in his/her state of residence must have permission from his/her parent or legal guardian prior to entering. Subject to Official Rules.</span> For Official Rules, prize descriptions and odds disclosure, go to <a href='http://www.flyawaywithnick.com'>www.flyawaywithnick.com</a>. Open only to legal residents of the 48 contiguous US and DC who are between 6 and 21 years old at the time of entry or parents of children who are between 6 and 21 years old at the time of entry. Void in AK, HI, Puerto Rico and where prohibited by law. Sweepstakes starts at 12:00:01 a.m. ET on 4/4/16 and ends at 11:59:59 p.m. ET on 5/1/16. One (1) Grand Prize available in the Sweepstakes, ARV: $4,424.50. Sponsor: Viacom Media Networks, a division of Viacom International, Inc., 1515 Broadway, New York, NY 10036.  HARRY POTTER characters, names and related indicia are &copy; &amp; &trade; Warner Bros. Entertainment Inc. Harry Potter Publishing Rights &copy; JKR. (s16) Cabana Bay Beach Resort &copy; 2016 UCF Hotel Venture II. All rights reserved. Universal elements and all related indicia TM &amp; &copy; 2016 Universal Studios. All rights reserved. &copy; 2016 Viacom International Inc."
}
